<?xml version="1.0" encoding="UTF-8"?>
<DataFileEntity>
   <description></description>
   <name>MemberNameNonClientEssenceIndonesiaMA</name>
   <tag></tag>
   <containsHeaders>true</containsHeaders>
   <csvSeperator></csvSeperator>
   <dataFileGUID>0dd4f875-6e0d-487a-b864-cc8c0551f420</dataFileGUID>
   <dataSourceUrl>jdbc:sqlserver://172.16.94.70;databaseName=SEA</dataSourceUrl>
   <driver>DBData</driver>
   <isInternalPath>false</isInternalPath>
   <password>SXQ1RnUjSDBtMzE3</password>
   <query>SELECT TOP 1
        UPPER(CONCAT(RTRIM(c.EmpID), SPACE(1), '-', SPACE(1),
                     RTRIM(LTRIM(c.MemberNo)), SPACE(1), '-', SPACE(1),
                     RTRIM(c.Name), SPACE(1), '-', SPACE(1), RTRIM(a.Name))) AS DataDescription ,
        c.EmpID AS EmployeeID ,
        c.MemberNo AS MemberNo ,
        c.NAME AS MemberName ,
        a.Name AS ClientName ,
        a.ID AS ClientID ,
        NULL AS DataTerm ,
        'MEMBER' AS DataType ,
        'CREATEGL' AS DataModule ,
        0 AS RowStatus ,
        'JOBSQL' AS CreatedBy ,
        GETDATE() AS CreatedDate ,
        'JOBSQL' AS ModifiedBy ,
        GETDATE() AS ModifiedDate
FROM    profile a
        INNER JOIN policy b ON a.id = b.clientid
        INNER JOIN policy_member c ON b.pno = c.pno
        INNER JOIN Policy_Member_Plan PMP ON b.PNO = PMP.PNO
                                             AND c.MNO = PMP.MNO
                                             AND PMP.ExcludeF = 0
        LEFT JOIN Policy_Plan_Schedule PPS ON PPS.PNO = C.PNO
                                              AND pmp.PPlan = PPS.PPlan
                                              AND pmp.BAmount = PPS.BAmount
        INNER JOIN Policy_Classification PC ON B.PNO = PC.PNO
                                               AND C.CLASSNO = PC.CLASSNO
        INNER JOIN PPlan PP ON PMP.PPlan = PP.PPlan
        INNER JOIN Product Pr ON PP.ProductID = Pr.ProductID
        LEFT JOIN ( SELECT DISTINCT
                            pm.memberno
                    FROM    claimh ch
                            INNER JOIN policy_member pm ON ch.MNO = pm.MNo
                    WHERE   CAST(GETDATE() AS DATE) BETWEEN start AND finish
                  ) X ON X.MemberNo = C.MemberNo
        LEFT JOIN TREATMENTROOMMODEL TRM ON TRM.CLIENTID = B.CLIENTID
WHERE   B.PStatus &lt;> 'O'
        AND C.MemberNo &lt;> ''
        AND B.EffectiveDate >= '2013-01-01'
        AND CAST(GETDATE() AS DATE) BETWEEN c.PDate AND C.PPDate
        AND b.RenewalDate >= CAST(GETDATE() - 14 AS DATE)
        AND X.MemberNo IS NULL
        AND TRM.CLIENTID IS NULL
        AND pr.ProductType = 'MA'
        AND a.Name LIKE 'PT Essence Indonesia'
		--AND a.Name LIKE 'PT Showa Indonesia Manufacturing'
		--AND a.Name LIKE 'PT United Tractors Tbk'
		--AND a.Name LIKE 'PT. Astra Honda Motor - Gol. 1-7'
		--AND a.Name LIKE 'PT. Atlantis'
        AND c.Membership LIKE '%EMP%'
GROUP BY c.MemberNo ,
        c.Name ,
        c.EmpID ,
        a.Name ,
        a.ID</query>
   <secureUserAccount>true</secureUserAccount>
   <sheetName></sheetName>
   <user>ITAPP</user>
   <usingGlobalDBSetting>false</usingGlobalDBSetting>
</DataFileEntity>
